results.vcd
$date
  Fri May 18 19:32:34 2018
$end
$version
  GHDL v0
$end
$timescale
  1 fs
$end
$var reg 1 ! c_rw $end
$var reg 16 " c_adr[15:0] $end
$var reg 8 # c_dato[7:0] $end
$var reg 8 $ c_dati[7:0] $end
$var reg 1 % a_rw $end
$var reg 8 & a_dat[7:0] $end
$var reg 8 ' o_dat[7:0] $end
$var reg 1 ( t_w $end
$var reg 1 ) l_clk $end
$var reg 1 * l_rst $end
$scope module cpu_mod $end
$var reg 1 + i_clk $end
$var reg 1 , i_rst $end
$var reg 8 - i_dat[7:0] $end
$var reg 16 . q_adr[15:0] $end
$var reg 8 / q_dat[7:0] $end
$var reg 1 0 q_rw $end
$var reg 1 1 dp_w $end
$var reg 15 2 dp_dout[14:0] $end
$var reg 1 3 alut_w $end
$var reg 15 4 alut_din[14:0] $end
$var reg 1 5 alur_w $end
$var reg 15 6 alur_dout[14:0] $end
$var reg 1 7 ip_w $end
$var reg 1 8 ip_inc $end
$var reg 15 9 ip_din[14:0] $end
$var reg 15 : ip_dout[14:0] $end
$var reg 1 ; ir_w $end
$var reg 8 < ir_dout[7:0] $end
$var reg 1 = alu_op $end
$var reg 1 > alu_f $end
$var reg 15 ? alu_in[14:0] $end
$var reg 15 @ alu_out[14:0] $end
$var reg 1 A c_flag[0:0] $end
$var reg 9 B l_cs[8:0] $end
$scope module data_pointer $end
$var reg 1 C i_clk $end
$var reg 15 D i_d[14:0] $end
$var reg 1 E i_w $end
$var reg 15 F q_d[14:0] $end
$var reg 15 G l_content[14:0] $end
$upscope $end
$scope module instruction_pointer $end
$var reg 1 H i_clk $end
$var reg 15 I i_d[14:0] $end
$var reg 1 J i_inc $end
$var reg 1 K i_w $end
$var reg 15 L q_d[14:0] $end
$var reg 15 M l_content[14:0] $end
$upscope $end
$scope module instruction_reg $end
$var reg 1 N i_clk $end
$var reg 8 O i_d[7:0] $end
$var reg 1 P i_w $end
$var reg 8 Q q_d[7:0] $end
$var reg 8 R l_content[7:0] $end
$upscope $end
$scope module alu_tmp $end
$var reg 1 S i_clk $end
$var reg 15 T i_d[14:0] $end
$var reg 1 U i_w $end
$var reg 15 V q_d[14:0] $end
$var reg 15 W l_content[14:0] $end
$upscope $end
$scope module alu_res $end
$var reg 1 X i_clk $end
$var reg 15 Y i_d[14:0] $end
$var reg 1 Z i_w $end
$var reg 15 [ q_d[14:0] $end
$var reg 15 \ l_content[14:0] $end
$upscope $end
$scope module alu_t $end
$var reg 1 ] i_op $end
$var reg 15 ^ i_d[14:0] $end
$var reg 15 _ q_d[14:0] $end
$var reg 1 ` q_f $end
$var reg 15 a l_incr[14:0] $end
$var reg 15 b l_decr[14:0] $end
$upscope $end
$scope module cu $end
$var reg 1 c i_clk $end
$var reg 1 d i_rst $end
$var reg 1 e i_flag[0:0] $end
$var reg 8 f i_instr[7:0] $end
$var reg 9 g q_cs[8:0] $end
$var reg 8 h l_instr[7:0] $end
$var reg 1 i l_flag[0:0] $end
$var reg 1 j c_inc $end
$var reg 1 k c_rst $end
$var reg 3 l l_state[2:0] $end
$var reg 3 m l_c[2:0] $end
$var reg 9 n l_i[8:0] $end
$var reg 9 o l_cs[8:0] $end
$var reg 9 p l_csf[8:0] $end
$var reg 9 q l_csb[8:0] $end
$scope module ir $end
$var reg 1 r i_clk $end
$var reg 8 s i_d[7:0] $end
$var reg 1 t i_w $end
$var reg 8 u q_d[7:0] $end
$var reg 8 v l_content[7:0] $end
$upscope $end
$scope module flag $end
$var reg 1 w i_clk $end
$var reg 1 x i_d[0:0] $end
$var reg 1 y i_w $end
$var reg 1 z q_d[0:0] $end
$var reg 1 { l_content[0:0] $end
$upscope $end
$scope module cg $end
$var reg 1 | i_clk $end
$var reg 1 } i_inc $end
$var reg 1 !" i_rst $end
$var reg 3 "" q_cycle[2:0] $end
$var reg 3 #" l_cycle[2:0] $end
$upscope $end
$scope module itd $end
$var reg 8 $" i_instr[7:0] $end
$var reg 9 %" q_type[8:0] $end
$var reg 9 &" l_type[8:0] $end
$upscope $end
$upscope $end
$upscope $end
$scope module ram_mod $end
$var reg 1 '" i_clk $end
$var reg 1 (" i_rw $end
$var reg 15 )" i_adr[14:0] $end
$var reg 8 *" i_dat[7:0] $end
$var reg 8 +" q_dat[7:0] $end
$comment ram is not handled $end
$upscope $end
$scope module rom_mod $end
$var reg 1 ," i_clk $end
$var reg 15 -" i_adr[14:0] $end
$var reg 8 ." q_dat[7:0] $end
$comment rom is not handled $end
$upscope $end
$scope module tty_mod $end
$upscope $end
$enddefinitions $end
#0
0!
b0000000000000000 "
b00000000 #
b00101011 $
0%
b00000000 &
b00101011 '
U(
1)
1*
1+
1,
b00101011 -
b0000000000000000 .
b00000000 /
00
01
b000000000000000 2
03
b000000000000000 4
05
b000000000000000 6
U7
08
bUUUUUUUUUUUUUUU 9
b000000000000000 :
1;
b00000000 <
0=
1>
b000000000000000 ?
b000000000000001 @
b1 A
b010000010 B
1C
b000000000000000 D
0E
b000000000000000 F
b000000000000000 G
1H
bUUUUUUUUUUUUUUU I
0J
UK
b000000000000000 L
b000000000000000 M
1N
b00101011 O
1P
b00000000 Q
b00000000 R
1S
b000000000000000 T
0U
b000000000000000 V
b000000000000000 W
1X
b000000000000001 Y
0Z
b000000000000000 [
b000000000000000 \
0]
b000000000000000 ^
b000000000000001 _
1`
b000000000000001 a
b111111111111111 b
1c
1d
b1 e
b00000000 f
b010000010 g
b00000000 h
b0 i
1j
1k
b001 l
b001 m
b000000000 n
b010000010 o
b100000000 p
bUUUUUUUUU q
1r
b00000000 s
1t
b00000000 u
b00000000 v
1w
b1 x
1y
b0 z
b0 {
1|
1}
1!"
b001 ""
b001 #"
b00000000 $"
b000000000 %"
b000000000 &"
1'"
0("
b000000000000000 )"
b00000000 *"
b00000000 +"
1,"
b000000000000000 -"
b00101011 ."
#10000000
0)
0+
0C
0H
0N
0S
0X
0c
0r
0w
0y
0|
0'"
0,"
#20000000
1)
0*
1+
0,
b00101011 <
1C
1H
1N
b00101011 Q
b00101011 R
1S
1X
1c
0d
b00101011 f
b1 i
1r
b00101011 s
1w
1y
b1 z
b1 {
1|
1'"
1,"
#30000000
0)
0+
0C
0H
0N
0S
0X
0c
0r
0w
0y
0|
0'"
0,"
#40000000
b1000000000000000 "
b00000000 $
1)
1+
b00000000 -
b1000000000000000 .
13
b000000000000000 4
18
0;
b100100001 B
1C
1H
1J
1N
b00000000 O
0P
1S
b000000000000000 T
1U
1X
1c
b100100001 g
b00101011 h
0k
b100000001 n
b100100001 o
1r
0t
b00101011 u
b00101011 v
1w
1y
1|
0!"
b00101011 $"
b100000001 %"
b100000001 &"
1'"
1,"
#50000000
0)
0+
0C
0H
0N
0S
0X
0c
0r
0w
0y
0|
0'"
0,"
#60000000
b0000000000000001 "
b00111110 $
b00111110 '
1)
1+
b00111110 -
b0000000000000001 .
03
15
08
b000000000000001 :
1;
b011000010 B
1C
1H
0J
b000000000000001 L
b000000000000001 M
1N
b00111110 O
1P
1S
0U
1X
1Z
1c
b011000010 g
b010 m
b011000010 o
b010000010 p
1r
1w
1y
1|
b010 ""
b010 #"
1'"
b000000000000001 )"
1,"
b000000000000001 -"
b00111110 ."
#70000000
0)
0+
0C
0H
0N
0S
0X
0c
0r
0w
0y
0|
0'"
0,"
#80000000
1!
b1000000000000000 "
b00000001 #
b00000000 $
1%
b00101011 '
1)
1+
b00000000 -
b1000000000000000 .
b00000001 /
10
05
b000000000000001 6
0;
b00111110 <
b000010000 B
1C
b000000000000001 D
1H
1N
b00000000 O
0P
b00111110 Q
b00111110 R
1S
1X
0Z
b000000000000001 [
b000000000000001 \
1c
b00111110 f
b000010000 g
1k
b100 m
b000010000 o
b000000000 p
1r
b00111110 s
1t
1w
1y
1|
1!"
b100 ""
b100 #"
1'"
1("
b000000000000000 )"
b00000001 *"
1,"
b000000000000000 -"
b00101011 ."
#90000000
b00000001 $
b00000001 &
0)
0+
b00000001 -
0C
0H
0N
b00000001 O
0S
0X
0c
0r
0w
0y
0|
0'"
b00000001 +"
0,"
#100000000
0!
0%
1)
1+
00
13
b000000000000000 4
18
b100100000 B
1C
1H
1J
1N
1S
b000000000000000 T
1U
1X
1c
b100100000 g
b00111110 h
0k
b001 m
b100000100 n
b100100000 o
b100000000 p
1r
0t
b00111110 u
b00111110 v
1w
1y
1|
0!"
b001 ""
b001 #"
b00111110 $"
b100000100 %"
b100000100 &"
1'"
0("
1,"
#110000000
0)
0+
0C
0H
0N
0S
0X
0c
0r
0w
0y
0|
0'"
0,"
#120000000
b0000000000000010 "
b00101011 $
b00000000 &
1)
1+
b00101011 -
b0000000000000010 .
03
15
08
b000000000000010 :
1;
b011000010 B
1C
1H
0J
b000000000000010 L
b000000000000010 M
1N
b00101011 O
1P
1S
0U
1X
1Z
1c
b011000010 g
b010 m
b011000010 o
b010000010 p
1r
1w
1y
1|
b010 ""
b010 #"
1'"
b000000000000010 )"
b00000000 +"
1,"
b000000000000010 -"
#130000000
0)
0+
0C
0H
0N
0S
0X
0c
0r
0w
0y
0|
0'"
0,"
#140000000
b1000000000000000 "
b00000001 $
b00000001 &
1)
1+
b00000001 -
b1000000000000000 .
11
05
0;
b00101011 <
b000001000 B
1C
1E
1H
1N
b00000001 O
0P
b00101011 Q
b00101011 R
1S
1X
0Z
1c
b00101011 f
b000001000 g
1k
b100 m
b000001000 o
b000000000 p
1r
b00101011 s
1t
1w
1y
1|
1!"
b100 ""
b100 #"
1'"
b000000000000000 )"
b00000001 +"
1,"
b000000000000000 -"
#150000000
0)
0+
0C
0H
0N
0S
0X
0c
0r
0w
0y
0|
0'"
0,"
#160000000
b1000000000000001 "
b00000000 $
b00000000 &
b00111110 '
1)
1+
b00000000 -
b1000000000000001 .
01
b000000000000001 2
13
b000000000000000 4
18
b100100001 B
1C
0E
b000000000000001 F
b000000000000001 G
1H
1J
1N
b00000000 O
1S
b000000000000000 T
1U
1X
1c
b100100001 g
b00101011 h
0k
b001 m
b100000001 n
b100100001 o
b100000000 p
1r
0t
b00101011 u
b00101011 v
1w
1y
1|
0!"
b001 ""
b001 #"
b00101011 $"
b100000001 %"
b100000001 &"
1'"
b000000000000001 )"
b00000000 +"
1,"
b000000000000001 -"
b00111110 ."
#170000000
0)
0+
0C
0H
0N
0S
0X
0c
0r
0w
0y
0|
0'"
0,"
#180000000
b0000000000000011 "
b00101011 $
b00101011 '
1)
1+
b00101011 -
b0000000000000011 .
03
b000000000000001 4
15
08
b000000000000011 :
1;
b011000010 B
1C
1H
0J
b000000000000011 L
b000000000000011 M
1N
b00101011 O
1P
1S
b000000000000001 T
0U
1X
1Z
1c
b011000010 g
b010 m
b011000010 o
b010000010 p
1r
1w
1y
1|
b010 ""
b010 #"
1'"
b000000000000011 )"
1,"
b000000000000011 -"
b00101011 ."
#190000000
0)
0+
0C
0H
0N
0S
0X
0c
0r
0w
0y
0|
0'"
0,"
#200000000
1!
b1000000000000001 "
b00000000 $
1%
b00111110 '
1)
1+
b00000000 -
b1000000000000001 .
10
05
0;
b000010000 B
1C
1H
1N
b00000000 O
0P
1S
1X
0Z
1c
b000010000 g
1k
b100 m
b000010000 o
b000000000 p
1r
1t
1w
1y
1|
1!"
b100 ""
b100 #"
1'"
1("
b000000000000001 )"
1,"
b000000000000001 -"
b00111110 ."
#210000000
b00000001 $
b00000001 &
0)
0+
b00000001 -
0C
0H
0N
b00000001 O
0S
0X
0c
0r
0w
0y
0|
0'"
b00000001 +"
0,"
#220000000
0!
0%
1)
1+
00
13
18
b100100001 B
1C
1H
1J
1N
1S
1U
1X
1c
b100100001 g
0k
b001 m
b100100001 o
b100000000 p
1r
0t
1w
1y
1|
0!"
b001 ""
b001 #"
1'"
0("
1,"
#230000000
0)
0+
0C
0H
0N
0S
0X
0c
0r
0w
0y
0|
0'"
0,"
#240000000
b0000000000000100 "
b00101011 $
b00000000 &
b00101011 '
1)
1+
b00101011 -
b0000000000000100 .
03
15
08
b000000000000100 :
1;
0>
b000000000000001 ?
b000000000000010 @
b0 A
b011000010 B
1C
1H
0J
b000000000000100 L
b000000000000100 M
1N
b00101011 O
1P
1S
0U
b000000000000001 V
b000000000000001 W
1X
b000000000000010 Y
1Z
b000000000000001 ^
b000000000000010 _
0`
b000000000000010 a
b000000000000000 b
1c
b0 e
b011000010 g
b010 m
b011000010 o
b010000010 p
1r
1w
b0 x
1y
1|
b010 ""
b010 #"
1'"
b000000000000100 )"
b00000000 +"
1,"
b000000000000100 -"
b00101011 ."
#250000000
0)
0+
0C
0H
0N
0S
0X
0c
0r
0w
0y
0|
0'"
0,"
#260000000
1!
b1000000000000001 "
b00000010 #
b00000001 $
1%
b00000001 &
b00111110 '
1)
1+
b00000001 -
b1000000000000001 .
b00000010 /
10
05
b000000000000010 6
0;
b000010000 B
1C
b000000000000010 D
1H
1N
b00000001 O
0P
1S
1X
0Z
b000000000000010 [
b000000000000010 \
1c
b000010000 g
b0 i
1k
b100 m
b000010000 o
b000000000 p
1r
1t
1w
1y
b0 z
b0 {
1|
1!"
b100 ""
b100 #"
1'"
1("
b000000000000001 )"
b00000010 *"
b00000001 +"
1,"
b000000000000001 -"
b00111110 ."
#270000000
b00000010 $
b00000010 &
0)
0+
b00000010 -
0C
0H
0N
b00000010 O
0S
0X
0c
0r
0w
0y
0|
0'"
b00000010 +"
0,"
#280000000
0!
0%
1)
1+
00
13
b000000000000010 4
18
b100100001 B
1C
1H
1J
1N
1S
b000000000000010 T
1U
1X
1c
b100100001 g
0k
b001 m
b100100001 o
b100000000 p
1r
0t
1w
1y
1|
0!"
b001 ""
b001 #"
1'"
0("
1,"
#290000000
0)
0+
0C
0H
0N
0S
0X
0c
0r
0w
0y
0|
0'"
0,"
#300000000
b0000000000000101 "
b00111100 $
b00000000 &
b00111100 '
1)
1+
b00111100 -
b0000000000000101 .
03
b000000000000001 4
15
08
b000000000000101 :
1;
b000000000000010 ?
b000000000000011 @
b011000010 B
1C
1H
0J
b000000000000101 L
b000000000000101 M
1N
b00111100 O
1P
1S
b000000000000001 T
0U
b000000000000010 V
b000000000000010 W
1X
b000000000000011 Y
1Z
b000000000000010 ^
b000000000000011 _
b000000000000011 a
b000000000000001 b
1c
b011000010 g
b010 m
b011000010 o
b010000010 p
1r
1w
1y
1|
b010 ""
b010 #"
1'"
b000000000000101 )"
b00000000 +"
1,"
b000000000000101 -"
b00111100 ."
#310000000
0)
0+
0C
0H
0N
0S
0X
0c
0r
0w
0y
0|
0'"
0,"
#320000000
1!
b1000000000000001 "
b00000011 #
b00000010 $
1%
b00000010 &
b00111110 '
1)
1+
b00000010 -
b1000000000000001 .
b00000011 /
10
05
b000000000000011 6
0;
b00111100 <
b000010000 B
1C
b000000000000011 D
1H
1N
b00000010 O
0P
b00111100 Q
b00111100 R
1S
1X
0Z
b000000000000011 [
b000000000000011 \
1c
b00111100 f
b000010000 g
1k
b100 m
b000010000 o
b000000000 p
1r
b00111100 s
1t
1w
1y
1|
1!"
b100 ""
b100 #"
1'"
1("
b000000000000001 )"
b00000011 *"
b00000010 +"
1,"
b000000000000001 -"
b00111110 ."
#330000000
b00000011 $
b00000011 &
0)
0+
b00000011 -
0C
0H
0N
b00000011 O
0S
0X
0c
0r
0w
0y
0|
0'"
b00000011 +"
0,"
#340000000
0!
0%
1)
1+
00
13
b000000000000001 4
18
b100100000 B
1C
1H
1J
1N
1S
b000000000000001 T
1U
1X
1c
b100100000 g
b00111100 h
0k
b001 m
b100001000 n
b100100000 o
b100000000 p
1r
0t
b00111100 u
b00111100 v
1w
1y
1|
0!"
b001 ""
b001 #"
b00111100 $"
b100001000 %"
b100001000 &"
1'"
0("
1,"
#350000000
0)
0+
0C
0H
0N
0S
0X
0c
0r
0w
0y
0|
0'"
0,"
#360000000
b0000000000000110 "
b00111110 $
b00000000 &
1)
1+
b00111110 -
b0000000000000110 .
03
15
08
b000000000000110 :
1;
1=
b000000000000001 ?
b000000000000000 @
b011000110 B
1C
1H
0J
b000000000000110 L
b000000000000110 M
1N
b00111110 O
1P
1S
0U
b000000000000001 V
b000000000000001 W
1X
b000000000000000 Y
1Z
1]
b000000000000001 ^
b000000000000000 _
b000000000000010 a
b000000000000000 b
1c
b011000110 g
b010 m
b011000110 o
b010000010 p
1r
1w
1y
1|
b010 ""
b010 #"
1'"
b000000000000110 )"
b00000000 +"
1,"
b000000000000110 -"
#370000000
0)
0+
0C
0H
0N
0S
0X
0c
0r
0w
0y
0|
0'"
0,"
#380000000
b1000000000000001 "
b00000000 #
b00000011 $
b00000011 &
1)
1+
b00000011 -
b1000000000000001 .
b00000000 /
11
05
b000000000000000 6
0;
b00111110 <
0=
b000000000000010 @
b000001000 B
1C
b000000000000000 D
1E
1H
1N
b00000011 O
0P
b00111110 Q
b00111110 R
1S
1X
b000000000000010 Y
0Z
b000000000000000 [
b000000000000000 \
0]
b000000000000010 _
1c
b00111110 f
b000001000 g
1k
b100 m
b000001000 o
b000000000 p
1r
b00111110 s
1t
1w
1y
1|
1!"
b100 ""
b100 #"
1'"
b000000000000001 )"
b00000000 *"
b00000011 +"
1,"
b000000000000001 -"
#390000000
0)
0+
0C
0H
0N
0S
0X
0c
0r
0w
0y
0|
0'"
0,"
#400000000
b1000000000000000 "
b00000001 $
b00000001 &
b00101011 '
1)
1+
b00000001 -
b1000000000000000 .
01
b000000000000000 2
13
b000000000000000 4
18
b100100000 B
1C
0E
b000000000000000 F
b000000000000000 G
1H
1J
1N
b00000001 O
1S
b000000000000000 T
1U
1X
1c
b100100000 g
b00111110 h
0k
b001 m
b100000100 n
b100100000 o
b100000000 p
1r
0t
b00111110 u
b00111110 v
1w
1y
1|
0!"
b001 ""
b001 #"
b00111110 $"
b100000100 %"
b100000100 &"
1'"
b000000000000000 )"
b00000001 +"
1,"
b000000000000000 -"
b00101011 ."
#410000000
0)
0+
0C
0H
0N
0S
0X
0c
0r
0w
0y
0|
0'"
0,"
#420000000
b0000000000000111 "
b01011011 $
b00000000 &
b01011011 '
1)
1+
b01011011 -
b0000000000000111 .
03
15
08
b000000000000111 :
1;
1>
b000000000000000 ?
b000000000000001 @
b1 A
b011000010 B
1C
1H
0J
b000000000000111 L
b000000000000111 M
1N
b01011011 O
1P
1S
0U
b000000000000000 V
b000000000000000 W
1X
b000000000000001 Y
1Z
b000000000000000 ^
b000000000000001 _
1`
b000000000000001 a
b111111111111111 b
1c
b1 e
b011000010 g
b010 m
b011000010 o
b010000010 p
1r
1w
b1 x
1y
1|
b010 ""
b010 #"
1'"
b000000000000111 )"
b00000000 +"
1,"
b000000000000111 -"
b01011011 ."
#430000000
0)
0+
0C
0H
0N
0S
0X
0c
0r
0w
0y
0|
0'"
0,"
#440000000
b1000000000000000 "
b00000001 #
b00000001 $
b00000001 &
b00101011 '
1)
1+
b00000001 -
b1000000000000000 .
b00000001 /
11
05
b000000000000001 6
0;
b01011011 <
b000001000 B
1C
b000000000000001 D
1E
1H
1N
b00000001 O
0P
b01011011 Q
b01011011 R
1S
1X
0Z
b000000000000001 [
b000000000000001 \
1c
b01011011 f
b000001000 g
b1 i
1k
b100 m
b000001000 o
b000000000 p
1r
b01011011 s
1t
1w
1y
b1 z
b1 {
1|
1!"
b100 ""
b100 #"
1'"
b000000000000000 )"
b00000001 *"
b00000001 +"
1,"
b000000000000000 -"
b00101011 ."
#450000000
0)
0+
0C
0H
0N
0S
0X
0c
0r
0w
0y
0|
0'"
0,"
#460000000
b1000000000000001 "
b00000011 $
b00000011 &
b00111110 '
1)
1+
b00000011 -
b1000000000000001 .
01
b000000000000001 2
13
b000000000000011 4
18
b100100001 B
1C
0E
b000000000000001 F
b000000000000001 G
1H
1J
1N
b00000011 O
1S
b000000000000011 T
1U
1X
1c
b100100001 g
b01011011 h
0k
b001 m
b101000000 n
b100100001 o
b100000000 p
1r
0t
b01011011 u
b01011011 v
1w
1y
1|
0!"
b001 ""
b001 #"
b01011011 $"
b101000000 %"
b101000000 &"
1'"
b000000000000001 )"
b00000011 +"
1,"
b000000000000001 -"
b00111110 ."
#470000000
0)
0+
0C
0H
0N
0S
0X
0c
0r
0w
0y
0|
0'"
0,"
#480000000
b0000000000001000 "
b00101011 $
b00000000 &
b00101011 '
1)
1+
b00101011 -
b0000000000001000 .
03
b000000000000001 4
08
b000000000001000 :
1;
0>
b000000000000011 ?
b000000000000100 @
b0 A
b010000010 B
1C
1H
0J
b000000000001000 L
b000000000001000 M
1N
b00101011 O
1P
1S
b000000000000001 T
0U
b000000000000011 V
b000000000000011 W
1X
b000000000000100 Y
b000000000000011 ^
b000000000000100 _
0`
b000000000000100 a
b000000000000010 b
1c
b0 e
b010000010 g
b010 m
b010000010 o
b010000010 p
1r
1w
b0 x
1y
1|
b010 ""
b010 #"
1'"
b000000000001000 )"
b00000000 +"
1,"
b000000000001000 -"
b00101011 ."
#490000000
0)
0+
0C
0H
0N
0S
0X
0c
0r
0w
0y
0|
0'"
0,"
#500000000
b1000000000000001 "
b00000011 $
b00000011 &
b00111110 '
1)
1+
b00000011 -
b1000000000000001 .
0;
b00101011 <
b000000000 B
1C
1H
1N
b00000011 O
0P
b00101011 Q
b00101011 R
1S
1X
1c
b00101011 f
b000000000 g
b0 i
1k
b100 m
b000000000 o
b000000000 p
1r
b00101011 s
1t
1w
1y
b0 z
b0 {
1|
1!"
b100 ""
b100 #"
1'"
b000000000000001 )"
b00000011 +"
1,"
b000000000000001 -"
b00111110 ."
#510000000
0)
0+
0C
0H
0N
0S
0X
0c
0r
0w
0y
0|
0'"
0,"
#520000000
1)
1+
13
b000000000000011 4
18
b100100001 B
1C
1H
1J
1N
1S
b000000000000011 T
1U
1X
1c
b100100001 g
b00101011 h
0k
b001 m
b100000001 n
b100100001 o
b100000000 p
1r
0t
b00101011 u
b00101011 v
1w
1y
1|
0!"
b001 ""
b001 #"
b00101011 $"
b100000001 %"
b100000001 &"
1'"
1,"
#530000000
0)
0+
0C
0H
0N
0S
0X
0c
0r
0w
0y
0|
0'"
0,"
#540000000
b0000000000001001 "
b00101011 $
b00000000 &
b00101011 '
1)
1+
b00101011 -
b0000000000001001 .
03
b000000000000001 4
15
08
b000000000001001 :
1;
b011000010 B
1C
1H
0J
b000000000001001 L
b000000000001001 M
1N
b00101011 O
1P
1S
b000000000000001 T
0U
1X
1Z
1c
b011000010 g
b010 m
b011000010 o
b010000010 p
1r
1w
1y
1|
b010 ""
b010 #"
1'"
b000000000001001 )"
b00000000 +"
1,"
b000000000001001 -"
b00101011 ."
#550000000
0)
0+
0C
0H
0N
0S
0X
0c
0r
0w
0y
0|
0'"
0,"
#560000000
1!
b1000000000000001 "
b00000100 #
b00000011 $
1%
b00000011 &
b00111110 '
1)
1+
b00000011 -
b1000000000000001 .
b00000100 /
10
05
b000000000000100 6
0;
b000010000 B
1C
b000000000000100 D
1H
1N
b00000011 O
0P
1S
1X
0Z
b000000000000100 [
b000000000000100 \
1c
b000010000 g
1k
b100 m
b000010000 o
b000000000 p
1r
1t
1w
1y
1|
1!"
b100 ""
b100 #"
1'"
1("
b000000000000001 )"
b00000100 *"
b00000011 +"
1,"
b000000000000001 -"
b00111110 ."
#570000000
b00000100 $
b00000100 &
0)
0+
b00000100 -
0C
0H
0N
b00000100 O
0S
0X
0c
0r
0w
0y
0|
0'"
b00000100 +"
0,"
#580000000
0!
0%
1)
1+
00
13
b000000000000100 4
18
b100100001 B
1C
1H
1J
1N
1S
b000000000000100 T
1U
1X
1c
b100100001 g
0k
b001 m
b100100001 o
b100000000 p
1r
0t
1w
1y
1|
0!"
b001 ""
b001 #"
1'"
0("
1,"
#590000000
0)
0+
0C
0H
0N
0S
0X
0c
0r
0w
0y
0|
0'"
0,"
#600000000
b0000000000001010 "
b00101011 $
b00000000 &
b00101011 '
1)
1+
b00101011 -
b0000000000001010 .
03
b000000000000001 4
15
08
b000000000001010 :
1;
b000000000000100 ?
b000000000000101 @
b011000010 B
1C
1H
0J
b000000000001010 L
b000000000001010 M
1N
b00101011 O
1P
1S
b000000000000001 T
0U
b000000000000100 V
b000000000000100 W
1X
b000000000000101 Y
1Z
b000000000000100 ^
b000000000000101 _
b000000000000101 a
b000000000000011 b
1c
b011000010 g
b010 m
b011000010 o
b010000010 p
1r
1w
1y
1|
b010 ""
b010 #"
1'"
b000000000001010 )"
b00000000 +"
1,"
b000000000001010 -"
b00101011 ."
#610000000
0)
0+
0C
0H
0N
0S
0X
0c
0r
0w
0y
0|
0'"
0,"
#620000000
1!
b1000000000000001 "
b00000101 #
b00000100 $
1%
b00000100 &
b00111110 '
1)
1+
b00000100 -
b1000000000000001 .
b00000101 /
10
05
b000000000000101 6
0;
b000010000 B
1C
b000000000000101 D
1H
1N
b00000100 O
0P
1S
1X
0Z
b000000000000101 [
b000000000000101 \
1c
b000010000 g
1k
b100 m
b000010000 o
b000000000 p
1r
1t
1w
1y
1|
1!"
b100 ""
b100 #"
1'"
1("
b000000000000001 )"
b00000101 *"
b00000100 +"
1,"
b000000000000001 -"
b00111110 ."
#630000000
b00000101 $
b00000101 &
0)
0+
b00000101 -
0C
0H
0N
b00000101 O
0S
0X
0c
0r
0w
0y
0|
0'"
b00000101 +"
0,"
#640000000
0!
0%
1)
1+
00
13
b000000000000101 4
18
b100100001 B
1C
1H
1J
1N
1S
b000000000000101 T
1U
1X
1c
b100100001 g
0k
b001 m
b100100001 o
b100000000 p
1r
0t
1w
1y
1|
0!"
b001 ""
b001 #"
1'"
0("
1,"
#650000000
0)
0+
0C
0H
0N
0S
0X
0c
0r
0w
0y
0|
0'"
0,"
#660000000
b0000000000001011 "
b00101011 $
b00000000 &
b00101011 '
1)
1+
b00101011 -
b0000000000001011 .
03
b000000000000001 4
15
08
b000000000001011 :
1;
b000000000000101 ?
b000000000000110 @
b011000010 B
1C
1H
0J
b000000000001011 L
b000000000001011 M
1N
b00101011 O
1P
1S
b000000000000001 T
0U
b000000000000101 V
b000000000000101 W
1X
b000000000000110 Y
1Z
b000000000000101 ^
b000000000000110 _
b000000000000110 a
b000000000000100 b
1c
b011000010 g
b010 m
b011000010 o
b010000010 p
1r
1w
1y
1|
b010 ""
b010 #"
1'"
b000000000001011 )"
b00000000 +"
1,"
b000000000001011 -"
b00101011 ."
#670000000
0)
0+
0C
0H
0N
0S
0X
0c
0r
0w
0y
0|
0'"
0,"
#680000000
1!
b1000000000000001 "
b00000110 #
b00000101 $
1%
b00000101 &
b00111110 '
1)
1+
b00000101 -
b1000000000000001 .
b00000110 /
10
05
b000000000000110 6
0;
b000010000 B
1C
b000000000000110 D
1H
1N
b00000101 O
0P
1S
1X
0Z
b000000000000110 [
b000000000000110 \
1c
b000010000 g
1k
b100 m
b000010000 o
b000000000 p
1r
1t
1w
1y
1|
1!"
b100 ""
b100 #"
1'"
1("
b000000000000001 )"
b00000110 *"
b00000101 +"
1,"
b000000000000001 -"
b00111110 ."
#690000000
b00000110 $
b00000110 &
0)
0+
b00000110 -
0C
0H
0N
b00000110 O
0S
0X
0c
0r
0w
0y
0|
0'"
b00000110 +"
0,"
#700000000
0!
0%
1)
1+
00
13
b000000000000110 4
18
b100100001 B
1C
1H
1J
1N
1S
b000000000000110 T
1U
1X
1c
b100100001 g
0k
b001 m
b100100001 o
b100000000 p
1r
0t
1w
1y
1|
0!"
b001 ""
b001 #"
1'"
0("
1,"
#710000000
0)
0+
0C
0H
0N
0S
0X
0c
0r
0w
0y
0|
0'"
0,"
#720000000
b0000000000001100 "
b01011101 $
b00000000 &
b01011101 '
1)
1+
b01011101 -
b0000000000001100 .
03
b000000000000001 4
15
08
b000000000001100 :
1;
b000000000000110 ?
b000000000000111 @
b011000010 B
1C
1H
0J
b000000000001100 L
b000000000001100 M
1N
b01011101 O
1P
1S
b000000000000001 T
0U
b000000000000110 V
b000000000000110 W
1X
b000000000000111 Y
1Z
b000000000000110 ^
b000000000000111 _
b000000000000111 a
b000000000000101 b
1c
b011000010 g
b010 m
b011000010 o
b010000010 p
1r
1w
1y
1|
b010 ""
b010 #"
1'"
b000000000001100 )"
b00000000 +"
1,"
b000000000001100 -"
b01011101 ."
#730000000
0)
0+
0C
0H
0N
0S
0X
0c
0r
0w
0y
0|
0'"
0,"
#740000000
1!
b1000000000000001 "
b00000111 #
b00000110 $
1%
b00000110 &
b00111110 '
1)
1+
b00000110 -
b1000000000000001 .
b00000111 /
10
05
b000000000000111 6
0;
b01011101 <
b000010000 B
1C
b000000000000111 D
1H
1N
b00000110 O
0P
b01011101 Q
b01011101 R
1S
1X
0Z
b000000000000111 [
b000000000000111 \
1c
b01011101 f
b000010000 g
1k
b100 m
b000010000 o
b000000000 p
1r
b01011101 s
1t
1w
1y
1|
1!"
b100 ""
b100 #"
1'"
1("
b000000000000001 )"
b00000111 *"
b00000110 +"
1,"
b000000000000001 -"
b00111110 ."
#750000000
b00000111 $
b00000111 &
0)
0+
b00000111 -
0C
0H
0N
b00000111 O
0S
0X
0c
0r
0w
0y
0|
0'"
b00000111 +"
0,"
#760000000
0!
0%
1)
1+
00
13
b000000000000111 4
08
b000100001 B
1C
1H
0J
1N
1S
b000000000000111 T
1U
1X
1c
b000100001 g
b01011101 h
0k
b001 m
b110000000 n
b000100001 o
b100000000 p
1r
0t
b01011101 u
b01011101 v
1w
1y
1|
0!"
b001 ""
b001 #"
b01011101 $"
b110000000 %"
b110000000 &"
1'"
0("
1,"
#770000000
0)
0+
0C
0H
0N
0S
0X
0c
0r
0w
0y
0|
0'"
0,"
