results.vcd
$date
  Fri May 11 18:49:37 2018
$end
$version
  GHDL v0
$end
$timescale
  1 fs
$end
$var reg 1 ! c_rw $end
$var reg 16 " c_adr[15:0] $end
$var reg 8 # c_dato[7:0] $end
$var reg 8 $ c_dati[7:0] $end
$var reg 1 % a_rw $end
$var reg 8 & a_dat[7:0] $end
$var reg 8 ' o_dat[7:0] $end
$var reg 1 ( t_w $end
$var reg 1 ) l_clk $end
$var reg 1 * l_rst $end
$scope module cpu_mod $end
$var reg 1 + i_clk $end
$var reg 1 , i_rst $end
$var reg 8 - i_dat[7:0] $end
$var reg 16 . q_adr[15:0] $end
$var reg 8 / q_dat[7:0] $end
$var reg 1 0 q_rw $end
$var reg 1 1 dp_w $end
$var reg 15 2 dp_dout[14:0] $end
$var reg 1 3 alut_w $end
$var reg 15 4 alut_din[14:0] $end
$var reg 1 5 alur_w $end
$var reg 15 6 alur_dout[14:0] $end
$var reg 1 7 ip_w $end
$var reg 1 8 ip_inc $end
$var reg 15 9 ip_din[14:0] $end
$var reg 15 : ip_dout[14:0] $end
$var reg 1 ; ir_w $end
$var reg 8 < ir_dout[7:0] $end
$var reg 1 = alu_op $end
$var reg 15 > alu_in[14:0] $end
$var reg 15 ? alu_out[14:0] $end
$var reg 9 @ l_cs[8:0] $end
$scope module data_pointer $end
$var reg 1 A i_clk $end
$var reg 15 B i_d[14:0] $end
$var reg 1 C i_w $end
$var reg 15 D q_d[14:0] $end
$var reg 15 E l_content[14:0] $end
$upscope $end
$scope module instruction_pointer $end
$var reg 1 F i_clk $end
$var reg 15 G i_d[14:0] $end
$var reg 1 H i_inc $end
$var reg 1 I i_w $end
$var reg 15 J q_d[14:0] $end
$var reg 15 K l_content[14:0] $end
$upscope $end
$scope module instruction_reg $end
$var reg 1 L i_clk $end
$var reg 8 M i_d[7:0] $end
$var reg 1 N i_w $end
$var reg 8 O q_d[7:0] $end
$var reg 8 P l_content[7:0] $end
$upscope $end
$scope module alu_tmp $end
$var reg 1 Q i_clk $end
$var reg 15 R i_d[14:0] $end
$var reg 1 S i_w $end
$var reg 15 T q_d[14:0] $end
$var reg 15 U l_content[14:0] $end
$upscope $end
$scope module alu_res $end
$var reg 1 V i_clk $end
$var reg 15 W i_d[14:0] $end
$var reg 1 X i_w $end
$var reg 15 Y q_d[14:0] $end
$var reg 15 Z l_content[14:0] $end
$upscope $end
$scope module alu_t $end
$var reg 1 [ i_op $end
$var reg 15 \ i_d[14:0] $end
$var reg 15 ] q_d[14:0] $end
$var reg 15 ^ l_incr[14:0] $end
$var reg 15 _ l_decr[14:0] $end
$upscope $end
$scope module cu $end
$var reg 1 ` i_clk $end
$var reg 1 a i_rst $end
$var reg 8 b i_instr[7:0] $end
$var reg 9 c q_cs[8:0] $end
$var reg 8 d l_instr[7:0] $end
$var reg 1 e c_inc $end
$var reg 1 f c_rst $end
$var reg 3 g l_c[2:0] $end
$var reg 9 h l_i[8:0] $end
$var reg 9 i l_cs[8:0] $end
$scope module ir $end
$var reg 1 j i_clk $end
$var reg 8 k i_d[7:0] $end
$var reg 1 l i_w $end
$var reg 8 m q_d[7:0] $end
$var reg 8 n l_content[7:0] $end
$upscope $end
$scope module cg $end
$var reg 1 o i_clk $end
$var reg 1 p i_inc $end
$var reg 1 q i_rst $end
$var reg 3 r q_cycle[2:0] $end
$var reg 3 s l_cycle[2:0] $end
$upscope $end
$scope module itd $end
$var reg 8 t i_instr[7:0] $end
$var reg 9 u q_type[8:0] $end
$var reg 9 v l_type[8:0] $end
$upscope $end
$upscope $end
$upscope $end
$scope module ram_mod $end
$var reg 1 w i_clk $end
$var reg 1 x i_rw $end
$var reg 15 y i_adr[14:0] $end
$var reg 8 z i_dat[7:0] $end
$var reg 8 { q_dat[7:0] $end
$comment ram is not handled $end
$upscope $end
$scope module rom_mod $end
$var reg 1 | i_clk $end
$var reg 15 } i_adr[14:0] $end
$var reg 8 !" q_dat[7:0] $end
$comment rom is not handled $end
$upscope $end
$scope module tty_mod $end
$upscope $end
$enddefinitions $end
#0
0!
b0000000000000000 "
b00000000 #
b00101011 $
0%
b00000000 &
b00101011 '
U(
1)
1*
1+
1,
b00101011 -
b0000000000000000 .
b00000000 /
00
01
b000000000000000 2
03
b000000000000000 4
05
b000000000000000 6
U7
08
bUUUUUUUUUUUUUUU 9
b000000000000000 :
1;
b00000000 <
0=
b000000000000000 >
b000000000000001 ?
b010000010 @
1A
b000000000000000 B
0C
b000000000000000 D
b000000000000000 E
1F
bUUUUUUUUUUUUUUU G
0H
UI
b000000000000000 J
b000000000000000 K
1L
b00101011 M
1N
b00000000 O
b00000000 P
1Q
b000000000000000 R
0S
b000000000000000 T
b000000000000000 U
1V
b000000000000001 W
0X
b000000000000000 Y
b000000000000000 Z
0[
b000000000000000 \
b000000000000001 ]
b000000000000001 ^
b111111111111111 _
1`
1a
b00000000 b
b010000010 c
b00000000 d
1e
1f
b001 g
b000000000 h
b010000010 i
1j
b00000000 k
1l
b00000000 m
b00000000 n
1o
1p
1q
b001 r
b001 s
b00000000 t
b000000000 u
b000000000 v
1w
0x
b000000000000000 y
b00000000 z
b00000000 {
1|
b000000000000000 }
b00101011 !"
#10000000
0)
0+
0A
0F
0L
0Q
0V
0`
0j
0o
0w
0|
#20000000
1)
0*
1+
0,
b00101011 <
1A
1F
1L
b00101011 O
b00101011 P
1Q
1V
1`
0a
b00101011 b
1j
b00101011 k
1o
1w
1|
#30000000
0)
0+
0A
0F
0L
0Q
0V
0`
0j
0o
0w
0|
#40000000
b1000000000000000 "
b00000000 $
1)
1+
b00000000 -
b1000000000000000 .
13
b000000000000000 4
18
0;
b100100001 @
1A
1F
1H
1L
b00000000 M
0N
1Q
b000000000000000 R
1S
1V
1`
b100100001 c
b00101011 d
0f
b100000001 h
b100100001 i
1j
0l
b00101011 m
b00101011 n
1o
0q
b00101011 t
b100000001 u
b100000001 v
1w
1|
#50000000
0)
0+
0A
0F
0L
0Q
0V
0`
0j
0o
0w
0|
#60000000
b0000000000000001 "
b00111110 $
b00111110 '
1)
1+
b00111110 -
b0000000000000001 .
03
15
08
b000000000000001 :
1;
b011000010 @
1A
1F
0H
b000000000000001 J
b000000000000001 K
1L
b00111110 M
1N
1Q
0S
1V
1X
1`
b011000010 c
b010 g
b011000010 i
1j
1o
b010 r
b010 s
1w
b000000000000001 y
1|
b000000000000001 }
b00111110 !"
#70000000
0)
0+
0A
0F
0L
0Q
0V
0`
0j
0o
0w
0|
#80000000
1!
b1000000000000000 "
b00000001 #
b00000000 $
1%
b00101011 '
1)
1+
b00000000 -
b1000000000000000 .
b00000001 /
10
05
b000000000000001 6
0;
b00111110 <
b000010000 @
1A
b000000000000001 B
1F
1L
b00000000 M
0N
b00111110 O
b00111110 P
1Q
1V
0X
b000000000000001 Y
b000000000000001 Z
1`
b00111110 b
b000010000 c
1f
b100 g
b000010000 i
1j
b00111110 k
1l
1o
1q
b100 r
b100 s
1w
1x
b000000000000000 y
b00000001 z
1|
b000000000000000 }
b00101011 !"
#90000000
b00000001 $
b00000001 &
0)
0+
b00000001 -
0A
0F
0L
b00000001 M
0Q
0V
0`
0j
0o
0w
b00000001 {
0|
#100000000
0!
0%
1)
1+
00
13
b000000000000000 4
18
b100100000 @
1A
1F
1H
1L
1Q
b000000000000000 R
1S
1V
1`
b100100000 c
b00111110 d
0f
b001 g
b100000100 h
b100100000 i
1j
0l
b00111110 m
b00111110 n
1o
0q
b001 r
b001 s
b00111110 t
b100000100 u
b100000100 v
1w
0x
1|
#110000000
0)
0+
0A
0F
0L
0Q
0V
0`
0j
0o
0w
0|
#120000000
b0000000000000010 "
b00101011 $
b00000000 &
1)
1+
b00101011 -
b0000000000000010 .
03
15
08
b000000000000010 :
1;
b011000010 @
1A
1F
0H
b000000000000010 J
b000000000000010 K
1L
b00101011 M
1N
1Q
0S
1V
1X
1`
b011000010 c
b010 g
b011000010 i
1j
1o
b010 r
b010 s
1w
b000000000000010 y
b00000000 {
1|
b000000000000010 }
#130000000
0)
0+
0A
0F
0L
0Q
0V
0`
0j
0o
0w
0|
#140000000
b1000000000000000 "
b00000001 $
b00000001 &
1)
1+
b00000001 -
b1000000000000000 .
11
05
0;
b00101011 <
b000001000 @
1A
1C
1F
1L
b00000001 M
0N
b00101011 O
b00101011 P
1Q
1V
0X
1`
b00101011 b
b000001000 c
1f
b100 g
b000001000 i
1j
b00101011 k
1l
1o
1q
b100 r
b100 s
1w
b000000000000000 y
b00000001 {
1|
b000000000000000 }
#150000000
0)
0+
0A
0F
0L
0Q
0V
0`
0j
0o
0w
0|
#160000000
b1000000000000001 "
b00000000 $
b00000000 &
b00111110 '
1)
1+
b00000000 -
b1000000000000001 .
01
b000000000000001 2
13
b000000000000000 4
18
b100100001 @
1A
0C
b000000000000001 D
b000000000000001 E
1F
1H
1L
b00000000 M
1Q
b000000000000000 R
1S
1V
1`
b100100001 c
b00101011 d
0f
b001 g
b100000001 h
b100100001 i
1j
0l
b00101011 m
b00101011 n
1o
0q
b001 r
b001 s
b00101011 t
b100000001 u
b100000001 v
1w
b000000000000001 y
b00000000 {
1|
b000000000000001 }
b00111110 !"
#170000000
0)
0+
0A
0F
0L
0Q
0V
0`
0j
0o
0w
0|
#180000000
b0000000000000011 "
b00101011 $
b00101011 '
1)
1+
b00101011 -
b0000000000000011 .
03
b000000000000001 4
15
08
b000000000000011 :
1;
b011000010 @
1A
1F
0H
b000000000000011 J
b000000000000011 K
1L
b00101011 M
1N
1Q
b000000000000001 R
0S
1V
1X
1`
b011000010 c
b010 g
b011000010 i
1j
1o
b010 r
b010 s
1w
b000000000000011 y
1|
b000000000000011 }
b00101011 !"
#190000000
0)
0+
0A
0F
0L
0Q
0V
0`
0j
0o
0w
0|
#200000000
1!
b1000000000000001 "
b00000000 $
1%
b00111110 '
1)
1+
b00000000 -
b1000000000000001 .
10
05
0;
b000010000 @
1A
1F
1L
b00000000 M
0N
1Q
1V
0X
1`
b000010000 c
1f
b100 g
b000010000 i
1j
1l
1o
1q
b100 r
b100 s
1w
1x
b000000000000001 y
1|
b000000000000001 }
b00111110 !"
#210000000
b00000001 $
b00000001 &
0)
0+
b00000001 -
0A
0F
0L
b00000001 M
0Q
0V
0`
0j
0o
0w
b00000001 {
0|
#220000000
0!
0%
1)
1+
00
13
18
b100100001 @
1A
1F
1H
1L
1Q
1S
1V
1`
b100100001 c
0f
b001 g
b100100001 i
1j
0l
1o
0q
b001 r
b001 s
1w
0x
1|
#230000000
0)
0+
0A
0F
0L
0Q
0V
0`
0j
0o
0w
0|
#240000000
b0000000000000100 "
b00101011 $
b00000000 &
b00101011 '
1)
1+
b00101011 -
b0000000000000100 .
03
15
08
b000000000000100 :
1;
b000000000000001 >
b000000000000010 ?
b011000010 @
1A
1F
0H
b000000000000100 J
b000000000000100 K
1L
b00101011 M
1N
1Q
0S
b000000000000001 T
b000000000000001 U
1V
b000000000000010 W
1X
b000000000000001 \
b000000000000010 ]
b000000000000010 ^
b000000000000000 _
1`
b011000010 c
b010 g
b011000010 i
1j
1o
b010 r
b010 s
1w
b000000000000100 y
b00000000 {
1|
b000000000000100 }
b00101011 !"
#250000000
0)
0+
0A
0F
0L
0Q
0V
0`
0j
0o
0w
0|
#260000000
1!
b1000000000000001 "
b00000010 #
b00000001 $
1%
b00000001 &
b00111110 '
1)
1+
b00000001 -
b1000000000000001 .
b00000010 /
10
05
b000000000000010 6
0;
b000010000 @
1A
b000000000000010 B
1F
1L
b00000001 M
0N
1Q
1V
0X
b000000000000010 Y
b000000000000010 Z
1`
b000010000 c
1f
b100 g
b000010000 i
1j
1l
1o
1q
b100 r
b100 s
1w
1x
b000000000000001 y
b00000010 z
b00000001 {
1|
b000000000000001 }
b00111110 !"
#270000000
b00000010 $
b00000010 &
0)
0+
b00000010 -
0A
0F
0L
b00000010 M
0Q
0V
0`
0j
0o
0w
b00000010 {
0|
#280000000
0!
0%
1)
1+
00
13
b000000000000010 4
18
b100100001 @
1A
1F
1H
1L
1Q
b000000000000010 R
1S
1V
1`
b100100001 c
0f
b001 g
b100100001 i
1j
0l
1o
0q
b001 r
b001 s
1w
0x
1|
#290000000
0)
0+
0A
0F
0L
0Q
0V
0`
0j
0o
0w
0|
#300000000
b0000000000000101 "
b00111100 $
b00000000 &
b00111100 '
1)
1+
b00111100 -
b0000000000000101 .
03
b000000000000001 4
15
08
b000000000000101 :
1;
b000000000000010 >
b000000000000011 ?
b011000010 @
1A
1F
0H
b000000000000101 J
b000000000000101 K
1L
b00111100 M
1N
1Q
b000000000000001 R
0S
b000000000000010 T
b000000000000010 U
1V
b000000000000011 W
1X
b000000000000010 \
b000000000000011 ]
b000000000000011 ^
b000000000000001 _
1`
b011000010 c
b010 g
b011000010 i
1j
1o
b010 r
b010 s
1w
b000000000000101 y
b00000000 {
1|
b000000000000101 }
b00111100 !"
#310000000
0)
0+
0A
0F
0L
0Q
0V
0`
0j
0o
0w
0|
#320000000
1!
b1000000000000001 "
b00000011 #
b00000010 $
1%
b00000010 &
b00111110 '
1)
1+
b00000010 -
b1000000000000001 .
b00000011 /
10
05
b000000000000011 6
0;
b00111100 <
b000010000 @
1A
b000000000000011 B
1F
1L
b00000010 M
0N
b00111100 O
b00111100 P
1Q
1V
0X
b000000000000011 Y
b000000000000011 Z
1`
b00111100 b
b000010000 c
1f
b100 g
b000010000 i
1j
b00111100 k
1l
1o
1q
b100 r
b100 s
1w
1x
b000000000000001 y
b00000011 z
b00000010 {
1|
b000000000000001 }
b00111110 !"
#330000000
b00000011 $
b00000011 &
0)
0+
b00000011 -
0A
0F
0L
b00000011 M
0Q
0V
0`
0j
0o
0w
b00000011 {
0|
#340000000
0!
0%
1)
1+
00
13
b000000000000001 4
18
b100100000 @
1A
1F
1H
1L
1Q
b000000000000001 R
1S
1V
1`
b100100000 c
b00111100 d
0f
b001 g
b100001000 h
b100100000 i
1j
0l
b00111100 m
b00111100 n
1o
0q
b001 r
b001 s
b00111100 t
b100001000 u
b100001000 v
1w
0x
1|
#350000000
0)
0+
0A
0F
0L
0Q
0V
0`
0j
0o
0w
0|
#360000000
b0000000000000110 "
b00000000 $
b00000000 &
b00000000 '
1)
1+
b00000000 -
b0000000000000110 .
03
15
08
b000000000000110 :
1;
1=
b000000000000001 >
b000000000000000 ?
b011000110 @
1A
1F
0H
b000000000000110 J
b000000000000110 K
1L
b00000000 M
1N
1Q
0S
b000000000000001 T
b000000000000001 U
1V
b000000000000000 W
1X
1[
b000000000000001 \
b000000000000000 ]
b000000000000010 ^
b000000000000000 _
1`
b011000110 c
b010 g
b011000110 i
1j
1o
b010 r
b010 s
1w
b000000000000110 y
b00000000 {
1|
b000000000000110 }
b00000000 !"
#370000000
0)
0+
0A
0F
0L
0Q
0V
0`
0j
0o
0w
0|
#380000000
b1000000000000001 "
b00000000 #
b00000011 $
b00000011 &
b00111110 '
1)
1+
b00000011 -
b1000000000000001 .
b00000000 /
11
05
b000000000000000 6
0;
b00000000 <
0=
b000000000000010 ?
b000001000 @
1A
b000000000000000 B
1C
1F
1L
b00000011 M
0N
b00000000 O
b00000000 P
1Q
1V
b000000000000010 W
0X
b000000000000000 Y
b000000000000000 Z
0[
b000000000000010 ]
1`
b00000000 b
b000001000 c
1f
b100 g
b000001000 i
1j
b00000000 k
1l
1o
1q
b100 r
b100 s
1w
b000000000000001 y
b00000000 z
b00000011 {
1|
b000000000000001 }
b00111110 !"
#390000000
0)
0+
0A
0F
0L
0Q
0V
0`
0j
0o
0w
0|
#400000000
b0000000000000110 "
b00000000 $
b00000000 &
b00000000 '
1)
1+
b00000000 -
b0000000000000110 .
01
b000000000000000 2
03
b000000000000000 4
08
1;
b010000010 @
1A
0C
b000000000000000 D
b000000000000000 E
1F
0H
1L
b00000000 M
1N
1Q
b000000000000000 R
0S
1V
1`
b010000010 c
b00000000 d
1f
b001 g
b000000000 h
b010000010 i
1j
1l
b00000000 m
b00000000 n
1o
1q
b001 r
b001 s
b00000000 t
b000000000 u
b000000000 v
1w
b000000000000110 y
b00000000 {
1|
b000000000000110 }
b00000000 !"
